digraph G {

node[fontname="Hershey-Noailles-help-me"]

//labels
GS [
label="8.5 Talking back",
style=bold,
shape=rectangle,
penwidth="1pt"
]

SU [label="setup()"]
ST [label="start()"]
CCf [label="Code confessions"]
PP [label="Pythonic potential"]
SC [label="Source code"]
CCm [label="Code commentary"]
CCf2 [label="Code confessions"]
EiC [label="Exercise in class"]
EHD [label="Eliza and her daughers"]
SC2 [label="Source code"]
CCm2 [label="Code commentary: Keywords"]
CCf3 [label="Code confessions"]
MW [label="While()"]
MX [label="MiniX: \nBuild your own chatbot"]
RR [label="Required reading"]
FR [label="Further reading"]
Notes [label="Notes"]

//rank
{rank = same; RR, SU}
{rank = same; MW, Notes}

//graph
GS -> SU -> ST;
GS -> MX[minlen=3];
GS -> CCf[minlen=3];
ST -> DiC -> FC;
ST -> FC;
FC -> EiC -> EiC1 -> EiC2;
EiC -> AM -> MW;
MW -> Notes;
MW -> FC[dir=both]
SU -> MW [dir=both];
RR -> GS, SU, MW;
FC -> MX;
RR -> FR;
}
